…
``` r
# simulate 10000 times and calculate the probability.
set.seed(123)
sim_results_df = 
  tibble(n = 2:50) |>
 mutate(
    prob = map_dbl(n,
      ~ mean(replicate(10000, dup_birth(.x))) 
  ))

sim_results_df
```

    ## # A tibble: 49 × 2
    ##        n   prob
    ##    <int>  <dbl>
    ##  1     2 0.0033
    ##  2     3 0.0079
    ##  3     4 0.0158
    ##  4     5 0.0248
    ##  5     6 0.0387
    ##  6     7 0.057 
    ##  7     8 0.0749
    ##  8     9 0.0885
    ##  9    10 0.116 
    ## 10    11 0.140 
    ## # ℹ 39 more rows
…
